Analiza Mistrzostw Świata w Piłce Nożnej
…
print(druzyny_miejsca)

## # A tibble: 26 × 3
##    Kraj           Pozycja         n
##    <chr>          <chr>       <int>
##  1 Argentina      RUNNER.UP       3
##  2 Austria        THIRD.PLACE     1
##  3 Belgium        THIRD.PLACE     1
##  4 Brazil         RUNNER.UP       2
##  5 Brazil         THIRD.PLACE     2
##  6 Chile          THIRD.PLACE     1
##  7 Croatia        RUNNER.UP       1
##  8 Croatia        THIRD.PLACE     2
##  9 Czechoslovakia RUNNER.UP       2
## 10 France         RUNNER.UP       2
## # ℹ 16 more rows
…
